…
#> 
#> $sample
#> # A tibble: 35 x 3
#>    sample abundance name 
#>    <chr>      <int> <chr>
#>  1 alive          1 sp40 
#>  2 alive          1 sp41 
#>  3 alive          1 sp42 
#>  4 alive          1 sp43 
#>  5 alive          1 sp44 
#>  6 alive          1 sp45 
#>  7 alive          1 sp46 
#>  8 alive          1 sp47 
#>  9 alive          1 sp48 
#> 10 alive          1 sp49 
#> # ... with 25 more rows
#> 
#> $traits
#> # A tibble: 38 x 6
#>    name   ecov0 ecov1 ecov2 ecov3 ecov4
#>    <chr>  <dbl> <dbl> <dbl> <dbl> <dbl>
#>  1 dead8     -5     4     1   -14    -8
#>  2 dead15   -11    -8   -13    -3    13
#>  3 dead29    21   -22    24     3     2
#>  4 sp40       0    -5     8     0    11
#>  5 sp41     -11    17    16    -1   -11
#>  6 sp42     -19   -10     5    -6   -12
#>  7 sp43      10    -3    11    14     3
#>  8 sp44      14   -16    21     9     2
#>  9 sp45       1     8     2   -25    11
#> 10 sp46       2    16     3    -6    14
#> # ... with 28 more rows
```
…
```r
traits_file <- system.file("examples/traits_aot", package = "phylocomr")
phylo_file <- system.file("examples/phylo_aot", package = "phylocomr")
traitsdf_file <- system.file("examples/traits_aot_df", package = "phylocomr")
traits <- read.table(text = readLines(traitsdf_file), header = TRUE,
  stringsAsFactors = FALSE)
phylo_str <- readLines(phylo_file)
ph_aot(traits = traits, phylo = phylo_str)
```

```
#> $trait_conservatism
#> # A tibble: 124 x 28
#>    trait trait.name  node name    age ntaxa n.nodes tip.mn tmn.ranklow
#>    <int> <chr>      <int> <chr> <dbl> <int>   <int>  <dbl>       <int>
#>  1     1 traitA         0 A         5    32       2   1.75        1000
#>  2     1 traitA         1 B         4    16       2   1.75         678
#>  3     1 traitA         2 C         3     8       2   1.75         695
#>  4     1 traitA         3 D         2     4       2   1.5          285
#>  5     1 traitA         4 E         1     2       2   1             68
#>  6     1 traitA         7 F         1     2       2   2           1000
#>  7     1 traitA        10 G         2     4       2   2           1000
#>  8     1 traitA        11 H         1     2       2   2           1000
#>  9     1 traitA        14 I         1     2       2   2           1000
#> 10     1 traitA        17 J         3     8       2   1.75         653
#> # ... with 114 more rows, and 19 more variables: tmn.rankhi <int>,
#> #   tip.sd <dbl>, tsd.ranklow <int>, tsd.rankhi <int>, node.mn <dbl>,
#> #   nmn.ranklow <int>, nmn.rankhi <int>, nod.sd <dbl>, nsd.ranklow <int>,
#> #   nsd.rankhi <int>, sstipsroot <dbl>, sstips <dbl>,
#> #   percvaramongnodes <dbl>, percvaratnode <dbl>, contributionindex <dbl>,
#> #   sstipvnoderoot <dbl>, sstipvnode <dbl>, ssamongnodes <dbl>,
#> #   sswithinnodes <dbl>
#> 
#> $independent_contrasts
#> # A tibble: 31 x 17
#>     node name    age n.nodes contrast1 contrast2 contrast3 contrast4
#>    <int> <chr> <dbl>   <int>     <dbl>     <dbl>     <dbl>     <dbl>
#>  1     0 A         5       2     0         0         0         0.254
#>  2     1 B         4       2     0         1.03      0         0.516
#>  3     2 C         3       2     0.267     0.535     0         0    
#>  4     3 D         2       2     0.577     0         1.15      0    
#>  5     4 E         1       2     0         0         0.707     0    
#>  6     7 F         1       2     0         0         0.707     0    
#>  7    10 G         2       2     0         0         1.15      0    
#>  8    11 H         1       2     0         0         0.707     0    
#>  9    14 I         1       2     0         0         0.707     0    
#> 10    17 J         3       2     0.267     0.535     0         0    
#> # ... with 21 more rows, and 9 more variables: contrastsd <dbl>,
#> #   lowval1 <dbl>, hival1 <dbl>, lowval2 <dbl>, hival2 <dbl>,
#> #   lowval3 <dbl>, hival3 <dbl>, lowval4 <dbl>, hival4 <dbl>
…
