Introduction to the phylocomr package • phylocomr
…
 aot

traits_file <- system.file("examples/traits_aot", package = "phylocomr")
phylo_file <- system.file("examples/phylo_aot", package = "phylocomr")
traitsdf_file <- system.file("examples/traits_aot_df", package = "phylocomr")
traits <- read.table(text = readLines(traitsdf_file), header = TRUE,
  stringsAsFactors = FALSE)
phylo_str <- readLines(phylo_file)
ph_aot(traits = traits, phylo = phylo_str)
#> $trait_conservatism
#> # A tibble: 124 × 28
#>    trait trait.name  node  name   age ntaxa n.nodes tip.mn tmn.ranklow
#>    <int>      <chr> <int> <chr> <dbl> <int>   <int>  <dbl>       <int>
#> 1      1     traitA     0     A     5    32       2   1.75        1000
#> 2      1     traitA     1     B     4    16       2   1.75         663
#> 3      1     traitA     2     C     3     8       2   1.75         674
#> 4      1     traitA     3     D     2     4       2   1.50         269
#> 5      1     traitA     4     E     1     2       2   1.00          67
#> 6      1     traitA     7     F     1     2       2   2.00        1000
#> 7      1     traitA    10     G     2     4       2   2.00        1000
#> 8      1     traitA    11     H     1     2       2   2.00        1000
#> 9      1     traitA    14     I     1     2       2   2.00        1000
#> 10     1     traitA    17     J     3     8       2   1.75         669
#> # ... with 114 more rows, and 19 more variables: tmn.rankhi <int>,
#> #   tip.sd <dbl>, tsd.ranklow <int>, tsd.rankhi <int>, node.mn <dbl>,
#> #   nmn.ranklow <int>, nmn.rankhi <int>, nod.sd <dbl>, nsd.ranklow <int>,
#> #   nsd.rankhi <int>, sstipsroot <dbl>, sstips <dbl>,
#> #   percvaramongnodes <dbl>, percvaratnode <dbl>, contributionindex <dbl>,
#> #   sstipvnoderoot <dbl>, sstipvnode <dbl>, ssamongnodes <dbl>,
#> #   sswithinnodes <dbl>
#> 
#> $independent_contrasts
#> # A tibble: 31 × 17
#>     node  name   age n.nodes contrast1 contrast2 contrast3 contrast4
#>    <int> <chr> <dbl>   <int>     <dbl>     <dbl>     <dbl>     <dbl>
#> 1      0     A     5       2  0.000000  0.000000  0.000000  0.254000
#> 2      1     B     4       2  0.000000  1.032795  0.000000  0.516398
#> 3      2     C     3       2  0.267261  0.534522  0.000000  0.000000
#> 4      3     D     2       2  0.577350  0.000000  1.154700  0.000000
#> 5      4     E     1       2  0.000000  0.000000  0.707107  0.000000
#> 6      7     F     1       2  0.000000  0.000000  0.707107  0.000000
#> 7     10     G     2       2  0.000000  0.000000  1.154700  0.000000
#> 8     11     H     1       2  0.000000  0.000000  0.707107  0.000000
#> 9     14     I     1       2  0.000000  0.000000  0.707107  0.000000
#> 10    17     J     3       2  0.267261  0.534522  0.000000  0.000000
#> # ... with 21 more rows, and 9 more variables: contrastsd <dbl>,
#> #   lowval1 <dbl>, hival1 <dbl>, lowval2 <dbl>, hival2 <dbl>,
#> #   lowval3 <dbl>, hival3 <dbl>, lowval4 <dbl>, hival4 <dbl>
…
