aot — ph_aot • phylocomr
…
    Examples

traits_file <- system.file("examples/traits_aot", package = "phylocomr")
phylo_file <- system.file("examples/phylo_aot", package = "phylocomr")

# from data.frame
traitsdf_file <- system.file("examples/traits_aot_df",
  package = "phylocomr")
traits <- read.table(text = readLines(traitsdf_file), header = TRUE,
  stringsAsFactors = FALSE)
phylo_str <- readLines(phylo_file)
(res <- ph_aot(traits, phylo = phylo_str))
#> $trait_conservatism
#> # A tibble: 124 × 28
#>    trait trait.name  node  name   age Ntaxa N.nodes Tip.mn Tmn.rankLow
#>    <int>      <chr> <int> <chr> <dbl> <int>   <int>  <dbl>       <int>
#> 1      1     traitA     0     A     5    32       2   1.75        1000
#> 2      1     traitA     1     B     4    16       2   1.75         654
#> 3      1     traitA     2     C     3     8       2   1.75         683
#> 4      1     traitA     3     D     2     4       2   1.50         271
#> 5      1     traitA     4     E     1     2       2   1.00          64
#> 6      1     traitA     7     F     1     2       2   2.00        1000
#> 7      1     traitA    10     G     2     4       2   2.00        1000
#> 8      1     traitA    11     H     1     2       2   2.00        1000
#> 9      1     traitA    14     I     1     2       2   2.00        1000
#> 10     1     traitA    17     J     3     8       2   1.75         665
#> # ... with 114 more rows, and 19 more variables: Tmn.rankHi <int>,
#> #   Tip.sd <dbl>, Tsd.rankLow <int>, Tsd.rankHi <int>, Node.mn <dbl>,
#> #   Nmn.rankLow <int>, Nmn.rankHi <int>, Nod.sd <dbl>, Nsd.rankLow <int>,
#> #   Nsd.rankHi <int>, SSTipsRoot <dbl>, SSTips <dbl>, percVarAmongNodes <dbl>,
#> #   percVarAtNode <dbl>, ContributionIndex <dbl>, SSTipVNodeRoot <dbl>,
#> #   SSTipVNode <dbl>, SSAmongNodes <dbl>, SSWithinNodes <dbl>
#> 
#> $independent_contrasts
#> # A tibble: 31 × 17
#>     node  name   age N.nodes Contrast1 Contrast2 Contrast3 Contrast4 ContrastSD
#>    <int> <chr> <dbl>   <int>     <dbl>     <dbl>     <dbl>     <dbl>      <dbl>
#> 1      0     A     5       2  0.000000  0.000000  0.000000  0.254000   1.968502
#> 2      1     B     4       2  0.000000  1.032795  0.000000  0.516398   1.936492
#> 3      2     C     3       2  0.267261  0.534522  0.000000  0.000000   1.870829
#> 4      3     D     2       2  0.577350  0.000000  1.154700  0.000000   1.732051
#> 5      4     E     1       2  0.000000  0.000000  0.707107  0.000000   1.414214
#> 6      7     F     1       2  0.000000  0.000000  0.707107  0.000000   1.414214
#> 7     10     G     2       2  0.000000  0.000000  1.154700  0.000000   1.732051
#> 8     11     H     1       2  0.000000  0.000000  0.707107  0.000000   1.414214
#> 9     14     I     1       2  0.000000  0.000000  0.707107  0.000000   1.414214
#> 10    17     J     3       2  0.267261  0.534522  0.000000  0.000000   1.870829
#> # ... with 21 more rows, and 8 more variables: LowVal1 <dbl>, HiVal1 <dbl>,
#> #   LowVal2 <dbl>, HiVal2 <dbl>, LowVal3 <dbl>, HiVal3 <dbl>, LowVal4 <dbl>,
#> #   HiVal4 <dbl>
…
# from files
traits_str <- paste0(readLines(traits_file), collapse = "\n")
traits_file2 <- tempfile()
cat(traits_str, file = traits_file2, sep = '\n')
phylo_file2 <- tempfile()
cat(phylo_str, file = phylo_file2, sep = '\n')
(res <- ph_aot(traits_file2, phylo_file2))
#> $trait_conservatism
#> # A tibble: 124 × 28
#>    trait trait.name  node  name   age Ntaxa N.nodes Tip.mn Tmn.rankLow
#>    <int>      <chr> <int> <chr> <dbl> <int>   <int>  <dbl>       <int>
#> 1      1     traitA     0     A     5    32       2   1.75        1000
#> 2      1     traitA     1     B     4    16       2   1.75         650
#> 3      1     traitA     2     C     3     8       2   1.75         658
#> 4      1     traitA     3     D     2     4       2   1.50         250
#> 5      1     traitA     4     E     1     2       2   1.00          63
#> 6      1     traitA     7     F     1     2       2   2.00        1000
#> 7      1     traitA    10     G     2     4       2   2.00        1000
#> 8      1     traitA    11     H     1     2       2   2.00        1000
#> 9      1     traitA    14     I     1     2       2   2.00        1000
#> 10     1     traitA    17     J     3     8       2   1.75         678
#> # ... with 114 more rows, and 19 more variables: Tmn.rankHi <int>,
#> #   Tip.sd <dbl>, Tsd.rankLow <int>, Tsd.rankHi <int>, Node.mn <dbl>,
#> #   Nmn.rankLow <int>, Nmn.rankHi <int>, Nod.sd <dbl>, Nsd.rankLow <int>,
#> #   Nsd.rankHi <int>, SSTipsRoot <dbl>, SSTips <dbl>, percVarAmongNodes <dbl>,
#> #   percVarAtNode <dbl>, ContributionIndex <dbl>, SSTipVNodeRoot <dbl>,
#> #   SSTipVNode <dbl>, SSAmongNodes <dbl>, SSWithinNodes <dbl>
#> 
#> $independent_contrasts
#> # A tibble: 31 × 17
#>     node  name   age N.nodes Contrast1 Contrast2 Contrast3 Contrast4 ContrastSD
#>    <int> <chr> <dbl>   <int>     <dbl>     <dbl>     <dbl>     <dbl>      <dbl>
#> 1      0     A     5       2  0.000000  0.000000  0.000000  0.254000   1.968502
#> 2      1     B     4       2  0.000000  1.032795  0.000000  0.516398   1.936492
#> 3      2     C     3       2  0.267261  0.534522  0.000000  0.000000   1.870829
#> 4      3     D     2       2  0.577350  0.000000  1.154700  0.000000   1.732051
#> 5      4     E     1       2  0.000000  0.000000  0.707107  0.000000   1.414214
#> 6      7     F     1       2  0.000000  0.000000  0.707107  0.000000   1.414214
#> 7     10     G     2       2  0.000000  0.000000  1.154700  0.000000   1.732051
#> 8     11     H     1       2  0.000000  0.000000  0.707107  0.000000   1.414214
#> 9     14     I     1       2  0.000000  0.000000  0.707107  0.000000   1.414214
#> 10    17     J     3       2  0.267261  0.534522  0.000000  0.000000   1.870829
#> # ... with 21 more rows, and 8 more variables: LowVal1 <dbl>, HiVal1 <dbl>,
#> #   LowVal2 <dbl>, HiVal2 <dbl>, LowVal3 <dbl>, HiVal3 <dbl>, LowVal4 <dbl>,
#> #   HiVal4 <dbl>
…
