ecovolve — ph_ecovolve • phylocomr
…
#> 
#> $sample
#> # A tibble: 160 × 3
#>    sample abundance  name
#>     <chr>     <int> <chr>
#> 1   alive         1 sp193
#> 2   alive         1 sp194
#> 3   alive         1 sp195
#> 4   alive         1 sp196
#> 5   alive         1 sp197
#> 6   alive         1 sp198
#> 7   alive         1 sp199
#> 8   alive         1 sp200
#> 9   alive         1 sp201
#> 10  alive         1 sp202
#> # ... with 150 more rows
#> 
#> $traits
#> # A tibble: 177 × 6
#>       name ecov0 ecov1 ecov2 ecov3 ecov4
#>      <chr> <dbl> <dbl> <dbl> <dbl> <dbl>
#> 1   dead28     4    -2    18     5   -13
#> 2   dead35     1    -7     8    14     3
#> 3   dead40     4    18    20    -5    -2
#> 4   dead48   -13    20     8    -3     6
#> 5   dead59    13    -4     0     8   -11
#> 6   dead78     7    25    -7   -16   -21
#> 7   dead83     9    -3    -7     4    -9
#> 8   dead85   -23    26     9     7    -4
#> 9  dead106   -22    29    17     1    -6
#> 10 dead110     8    -7     6    -5    12
#> # ... with 167 more rows
…
#> 7   alive         1  sp35
#> 8   alive         1  sp36
#> 9   alive         1  sp37
#> 10  alive         1  sp38
#> 11  alive         1  sp39
#> 12  alive         1  sp40
#> 13  alive         1  sp41
#> 14  alive         1  sp42
#> 15  alive         1  sp43
#> 16  alive         1  sp44
#> 17  alive         1  sp45
#> 18  alive         1  sp46
#> 
#> $traits
#> # A tibble: 24 × 6
#>      name ecov0 ecov1 ecov2 ecov3 ecov4
#>     <chr> <dbl> <dbl> <dbl> <dbl> <dbl>
#> 1   dead4    -9     1    -2    10     2
#> 2   dead9     4     7    -6     2     4
#> 3  dead12    13     9    -6     8     7
#> 4  dead15     2    -1    -7     4     6
#> 5  dead21    -6     2    -2     8    14
#> 6  dead23   -11    -8    12    13     7
#> 7    sp29   -16    14    14    20    -3
#> 8    sp30     7     3    -7   -14   -14
#> 9    sp31    -4    17     2    -9    16
#> 10   sp32     2    -3    -2    11    15
#> # ... with 14 more rows
#> 
ph_ecovolve(out_mode = 2)
#> $phylogeny
#> # A tibble: 101 × 7
#>       v1    v2    v3    v4    v5    v6    v7
#>    <int> <int> <dbl> <dbl> <int> <dbl> <dbl>
#> 1      0     1     0   NaN     1     0   NaN
#> 2      1     1    -1   NaN     1    -1   NaN
#> 3      2     1     2   NaN     1     2   NaN
#> 4      3     1     1   NaN     1     1   NaN
#> 5      4     1     0   NaN     1     0   NaN
#> 6      5     1     1   NaN     1     1   NaN
#> 7      6     1     3   NaN     1     3   NaN
#> 8      7     1     5   NaN     1     5   NaN
#> 9      8     1     4   NaN     1     4   NaN
#> 10     9     1     3   NaN     1     3   NaN
#> # ... with 91 more rows
…
#> 
#> $sample
#> # A tibble: 37 × 3
#>    sample abundance  name
#>     <chr>     <int> <chr>
#> 1   alive         1  sp50
#> 2   alive         1  sp51
#> 3   alive         1  sp52
#> 4   alive         1  sp53
#> 5   alive         1  sp54
#> 6   alive         1  sp55
#> 7   alive         1  sp56
#> 8   alive         1  sp57
#> 9   alive         1  sp58
#> 10  alive         1  sp59
#> # ... with 27 more rows
#> 
#> $traits
#> # A tibble: 44 × 6
#>      name ecov0 ecov1 ecov2 ecov3 ecov4
#>     <chr> <dbl> <dbl> <dbl> <dbl> <dbl>
#> 1   dead2    -3    -3    -8     4     5
#> 2   dead4    -3    -1    -1    -8     5
#> 3  dead13     6     6     1     2    11
#> 4  dead19     1    14    -7     2     4
#> 5  dead21   -13   -10   -26     6    -7
#> 6  dead32    -7    21    18    -4    -1
#> 7  dead42   -18     8   -34     8    -1
#> 8    sp50     8     9    16    13     3
#> 9    sp51   -18    -4   -14     5    -4
#> 10   sp52   -10     7     8     5     8
#> # ... with 34 more rows
…
#> 
#> $sample
#> # A tibble: 36 × 3
#>    sample abundance  name
#>     <chr>     <int> <chr>
#> 1   alive         1  sp51
#> 2   alive         1  sp52
#> 3   alive         1  sp53
#> 4   alive         1  sp54
#> 5   alive         1  sp55
#> 6   alive         1  sp56
#> 7   alive         1  sp57
#> 8   alive         1  sp58
#> 9   alive         1  sp59
#> 10  alive         1  sp60
#> # ... with 26 more rows
#> 
#> $traits
#> # A tibble: 44 × 6
#>      name ecov0 ecov1 ecov2 ecov3 ecov4
#>     <chr> <dbl> <dbl> <dbl> <dbl> <dbl>
#> 1   dead1    13     0    -9     6   -10
#> 2  dead10    25    15    14    25   -19
#> 3  dead14    38    10    -5    16   -16
#> 4  dead22    35    16    -5    21   -13
#> 5  dead32    31    14    -4     8    -3
#> 6  dead35    20    11     3    15     0
#> 7  dead43    33     2    -4     7     4
#> 8  dead48    21   -12   -14    -7    -3
#> 9    sp51    24    -3    24    16    -2
#> 10   sp52    30    28    14    18    -7
#> # ... with 34 more rows
…
#> 
#> $sample
#> # A tibble: 53 × 3
#>    sample abundance  name
#>     <chr>     <int> <chr>
#> 1   alive         1 sp158
#> 2   alive         1 sp159
#> 3   alive         1 sp160
#> 4   alive         1 sp161
#> 5   alive         1 sp162
#> 6   alive         1 sp163
#> 7   alive         1 sp164
#> 8   alive         1 sp165
#> 9   alive         1 sp166
#> 10  alive         1 sp167
#> # ... with 43 more rows
#> 
#> $traits
#> # A tibble: 106 × 6
#>      name ecov0 ecov1 ecov2 ecov3 ecov4
#>     <chr> <dbl> <dbl> <dbl> <dbl> <dbl>
#> 1   dead2    -3    -7    -4     1     4
#> 2   dead3    -6    -3     3     7     4
#> 3   dead9     2   -15    -1    -8    -3
#> 4  dead12    -7   -31     4    -5     5
#> 5  dead14    -2   -13    -2   -11    -3
#> 6  dead16     2   -27     5     7   -14
#> 7  dead23   -13   -30    -2     0     5
#> 8  dead25    -9   -21    -3     7     1
#> 9  dead33   -12   -25     0     3     3
#> 10 dead37    -6   -10     1    -5     6
#> # ... with 96 more rows
…
#> 
#> $sample
#> # A tibble: 65 × 3
#>    sample abundance  name
#>     <chr>     <int> <chr>
#> 1   alive         1  sp88
#> 2   alive         1  sp89
#> 3   alive         1  sp90
#> 4   alive         1  sp91
#> 5   alive         1  sp92
#> 6   alive         1  sp93
#> 7   alive         1  sp94
#> 8   alive         1  sp95
#> 9   alive         1  sp96
#> 10  alive         1  sp97
#> # ... with 55 more rows
#> 
#> $traits
#> # A tibble: 77 × 6
#>      name ecov0 ecov1 ecov2 ecov3 ecov4
#>     <chr> <dbl> <dbl> <dbl> <dbl> <dbl>
#> 1   dead7    15   -21   -20     8    -1
#> 2   dead9    11    -3   -29     4    20
#> 3  dead29     6   -12   -12     6     6
#> 4  dead34    -1     3   -40     0    24
#> 5  dead38    27     8   -34     6     3
#> 6  dead43     7   -12   -37   -10    -3
#> 7  dead50    36    14   -23     6     2
#> 8  dead52    14     4   -11    -5    -5
#> 9  dead69    27     0   -44   -13     9
#> 10 dead74     1     5   -22     2     2
#> # ... with 67 more rows
…
